com\sample\sample_web\core\models\HelloWorldModel.class
com\sample\sample_web\core\servlets\SimpleServlet.class
com\sample\sample_web\core\listeners\SimpleResourceListener.class
com\sample\sample_web\core\filters\LoggingFilter.class
com\sample\sample_web\core\package-info.class
com\sample\sample_web\core\schedulers\SimpleScheduledTask.class
